EESchema Schematic File Version 4
EELAYER 28 0
EELAYER END
$Descr A4 11693 8268
encoding utf-8
Sheet 1 1
Title ""
Date ""
Rev ""
Comp ""
Comment1 ""
Comment2 ""
Comment3 ""
Comment4 ""
$EndDescr
$Comp
L Regulator_Linear:LM7812_TO220 U1
U 1 1 5BC87969
P 5100 2450
F 0 "U1" H 5100 2692 50  0000 C CNN
F 1 "LM7812_TO220" H 5100 2601 50  0000 C CNN
F 2 "Package_TO_SOT_THT:TO-220-3_Vertical" H 5100 2675 50  0001 C CIN
F 3 "http://www.fairchildsemi.com/ds/LM/LM7805.pdf" H 5100 2400 50  0001 C CNN
	1    5100 2450
	1    0    0    -1  
$EndComp
$Comp
L Regulator_Linear:LM7912_TO220 U2
U 1 1 5BC87E3F
P 5100 3800
F 0 "U2" H 5100 3651 50  0000 C CNN
F 1 "LM7912_TO220" H 5100 3560 50  0000 C CNN
F 2 "Package_TO_SOT_THT:TO-220-3_Vertical" H 5100 3600 50  0001 C CIN
F 3 "http://www.fairchildsemi.com/ds/LM/LM7905.pdf" H 5100 3800 50  0001 C CNN
	1    5100 3800
	1    0    0    -1  
$EndComp
$Comp
L Device:D D2
U 1 1 5BC8834F
P 5100 1950
F 0 "D2" H 5100 2166 50  0000 C CNN
F 1 "D" H 5100 2075 50  0000 C CNN
F 2 "Diode_THT:D_T-1_P10.16mm_Horizontal" H 5100 1950 50  0001 C CNN
F 3 "~" H 5100 1950 50  0001 C CNN
	1    5100 1950
	1    0    0    -1  
$EndComp
$Comp
L Device:D D3
U 1 1 5BC88DB0
P 5100 4450
F 0 "D3" H 5100 4234 50  0000 C CNN
F 1 "D" H 5100 4325 50  0000 C CNN
F 2 "Diode_THT:D_T-1_P10.16mm_Horizontal" H 5100 4450 50  0001 C CNN
F 3 "~" H 5100 4450 50  0001 C CNN
	1    5100 4450
	-1   0    0    1   
$EndComp
$Comp
L Device:C C5
U 1 1 5BC89520
P 4550 2750
F 0 "C5" H 4665 2796 50  0000 L CNN
F 1 "100n" H 4665 2705 50  0000 L CNN
F 2 "Capacitor_THT:C_Rect_L7.0mm_W2.0mm_P5.00mm" H 4588 2600 50  0001 C CNN
F 3 "~" H 4550 2750 50  0001 C CNN
	1    4550 2750
	1    0    0    -1  
$EndComp
$Comp
L Device:C C6
U 1 1 5BC89956
P 4550 3400
F 0 "C6" H 4665 3446 50  0000 L CNN
F 1 "100n" H 4665 3355 50  0000 L CNN
F 2 "Capacitor_THT:C_Rect_L7.0mm_W2.0mm_P5.00mm" H 4588 3250 50  0001 C CNN
F 3 "~" H 4550 3400 50  0001 C CNN
	1    4550 3400
	1    0    0    -1  
$EndComp
$Comp
L Device:C C8
U 1 1 5BC89EB1
P 5600 3400
F 0 "C8" H 5715 3446 50  0000 L CNN
F 1 "100n" H 5715 3355 50  0000 L CNN
F 2 "Capacitor_THT:C_Rect_L7.0mm_W2.0mm_P5.00mm" H 5638 3250 50  0001 C CNN
F 3 "~" H 5600 3400 50  0001 C CNN
	1    5600 3400
	1    0    0    -1  
$EndComp
$Comp
L Device:C C7
U 1 1 5BC8A1F2
P 5600 2750
F 0 "C7" H 5715 2796 50  0000 L CNN
F 1 "100n" H 5715 2705 50  0000 L CNN
F 2 "Capacitor_THT:C_Rect_L7.0mm_W2.0mm_P5.00mm" H 5638 2600 50  0001 C CNN
F 3 "~" H 5600 2750 50  0001 C CNN
	1    5600 2750
	1    0    0    -1  
$EndComp
$Comp
L Device:CP C3
U 1 1 5BC8A7B1
P 4000 2700
F 0 "C3" H 4118 2746 50  0000 L CNN
F 1 "4700u" H 4118 2655 50  0000 L CNN
F 2 "Capacitor_THT:CP_Radial_D16.0mm_P7.50mm" H 4038 2550 50  0001 C CNN
F 3 "~" H 4000 2700 50  0001 C CNN
	1    4000 2700
	1    0    0    -1  
$EndComp
$Comp
L Device:CP C4
U 1 1 5BC8B1B1
P 4000 3350
F 0 "C4" H 4118 3396 50  0000 L CNN
F 1 "4700u" H 4118 3305 50  0000 L CNN
F 2 "Capacitor_THT:CP_Radial_D16.0mm_P7.50mm" H 4038 3200 50  0001 C CNN
F 3 "~" H 4000 3350 50  0001 C CNN
	1    4000 3350
	1    0    0    -1  
$EndComp
$Comp
L Device:R R1
U 1 1 5BC8B6E7
P 3550 2450
F 0 "R1" V 3343 2450 50  0000 C CNN
F 1 "10/1W" V 3434 2450 50  0000 C CNN
F 2 "Resistor_THT:R_Axial_DIN0309_L9.0mm_D3.2mm_P2.54mm_Vertical" V 3480 2450 50  0001 C CNN
F 3 "~" H 3550 2450 50  0001 C CNN
	1    3550 2450
	0    1    1    0   
$EndComp
$Comp
L Device:R R2
U 1 1 5BC8BE27
P 3550 3800
F 0 "R2" V 3343 3800 50  0000 C CNN
F 1 "10/1W" V 3434 3800 50  0000 C CNN
F 2 "Resistor_THT:R_Axial_DIN0309_L9.0mm_D3.2mm_P2.54mm_Vertical" V 3480 3800 50  0001 C CNN
F 3 "~" H 3550 3800 50  0001 C CNN
	1    3550 3800
	0    1    1    0   
$EndComp
$Comp
L Device:CP C1
U 1 1 5BC8C478
P 3050 2700
F 0 "C1" H 3168 2746 50  0000 L CNN
F 1 "4700u" H 3168 2655 50  0000 L CNN
F 2 "Capacitor_THT:CP_Radial_D22.0mm_P10.00mm_SnapIn" H 3088 2550 50  0001 C CNN
F 3 "~" H 3050 2700 50  0001 C CNN
	1    3050 2700
	1    0    0    -1  
$EndComp
$Comp
L Device:CP C2
U 1 1 5BC8C72F
P 3050 3350
F 0 "C2" H 3168 3396 50  0000 L CNN
F 1 "4700u" H 3168 3305 50  0000 L CNN
F 2 "Capacitor_THT:CP_Radial_D22.0mm_P10.00mm_SnapIn" H 3088 3200 50  0001 C CNN
F 3 "~" H 3050 3350 50  0001 C CNN
	1    3050 3350
	1    0    0    -1  
$EndComp
$Comp
L Device:D_Bridge_+-AA D1
U 1 1 5BC8CD3D
P 2000 2950
F 0 "D1" H 2344 2950 50  0000 L CNN
F 1 "D_Bridge_+-AA" H 2344 2905 50  0001 L CNN
F 2 "Diode_THT:Diode_Bridge_DIP-4_W7.62mm_P5.08mm" H 2000 2950 50  0001 C CNN
F 3 "~" H 2000 2950 50  0001 C CNN
	1    2000 2950
	1    0    0    -1  
$EndComp
$Comp
L Device:CP C9
U 1 1 5BC8D893
P 6150 2750
F 0 "C9" H 6268 2796 50  0000 L CNN
F 1 "15u" H 6268 2705 50  0000 L CNN
F 2 "Capacitor_THT:CP_Radial_Tantal_D4.5mm_P5.00mm" H 6188 2600 50  0001 C CNN
F 3 "~" H 6150 2750 50  0001 C CNN
	1    6150 2750
	1    0    0    -1  
$EndComp
$Comp
L Device:CP C10
U 1 1 5BC8DD48
P 6150 3400
F 0 "C10" H 6268 3446 50  0000 L CNN
F 1 "15u" H 6268 3355 50  0000 L CNN
F 2 "Capacitor_THT:CP_Radial_Tantal_D4.5mm_P5.00mm" H 6188 3250 50  0001 C CNN
F 3 "~" H 6150 3400 50  0001 C CNN
	1    6150 3400
	1    0    0    -1  
$EndComp
$Comp
L Device:D D4
U 1 1 5BC8E5FB
P 6600 2750
F 0 "D4" V 6554 2829 50  0000 L CNN
F 1 "D" V 6645 2829 50  0000 L CNN
F 2 "Diode_THT:D_T-1_P10.16mm_Horizontal" H 6600 2750 50  0001 C CNN
F 3 "~" H 6600 2750 50  0001 C CNN
	1    6600 2750
	0    1    1    0   
$EndComp
$Comp
L Device:D D5
U 1 1 5BC8ED35
P 6600 3400
F 0 "D5" V 6554 3479 50  0000 L CNN
F 1 "D" V 6645 3479 50  0000 L CNN
F 2 "Diode_THT:D_T-1_P10.16mm_Horizontal" H 6600 3400 50  0001 C CNN
F 3 "~" H 6600 3400 50  0001 C CNN
	1    6600 3400
	0    1    1    0   
$EndComp
$Comp
L power:GND #PWR0101
U 1 1 5BC8F40D
P 2700 3150
F 0 "#PWR0101" H 2700 2900 50  0001 C CNN
F 1 "GND" H 2705 2977 50  0000 C CNN
F 2 "" H 2700 3150 50  0001 C CNN
F 3 "" H 2700 3150 50  0001 C CNN
	1    2700 3150
	1    0    0    -1  
$EndComp
Wire Wire Line
	2700 3150 2700 3050
Wire Wire Line
	2700 3050 3050 3050
Wire Wire Line
	6600 3050 6600 2900
Wire Wire Line
	6600 3250 6600 3050
Connection ~ 6600 3050
Wire Wire Line
	6150 2900 6150 3050
Connection ~ 6150 3050
Wire Wire Line
	6150 3050 6600 3050
Wire Wire Line
	6150 3050 6150 3250
Wire Wire Line
	5600 2900 5600 3050
Connection ~ 5600 3050
Wire Wire Line
	5600 3050 6150 3050
Wire Wire Line
	5600 3250 5600 3050
Wire Wire Line
	4550 3250 4550 3050
Connection ~ 4550 3050
Wire Wire Line
	4550 3050 5100 3050
Wire Wire Line
	4550 3050 4550 2900
Wire Wire Line
	4000 2850 4000 3050
Connection ~ 4000 3050
Wire Wire Line
	4000 3050 4550 3050
Wire Wire Line
	4000 3050 4000 3200
Wire Wire Line
	3050 2850 3050 3050
Connection ~ 3050 3050
Wire Wire Line
	3050 3050 4000 3050
Wire Wire Line
	3050 3050 3050 3200
Wire Wire Line
	3050 3500 3050 3800
Wire Wire Line
	3050 3800 3400 3800
Wire Wire Line
	3700 3800 4000 3800
Wire Wire Line
	4550 3550 4550 3800
Connection ~ 4550 3800
Wire Wire Line
	4550 3800 4800 3800
Wire Wire Line
	4000 3500 4000 3800
Connection ~ 4000 3800
Wire Wire Line
	4000 3800 4550 3800
Wire Wire Line
	5400 3800 5600 3800
Wire Wire Line
	5600 3800 5600 3550
Wire Wire Line
	5600 3800 6150 3800
Wire Wire Line
	6150 3800 6150 3550
Connection ~ 5600 3800
Wire Wire Line
	6150 3800 6600 3800
Wire Wire Line
	6600 3800 6600 3550
Connection ~ 6150 3800
Wire Wire Line
	6600 2600 6600 2450
Wire Wire Line
	6600 2450 6150 2450
Wire Wire Line
	5600 2600 5600 2450
Connection ~ 5600 2450
Wire Wire Line
	5600 2450 5400 2450
Wire Wire Line
	6150 2600 6150 2450
Connection ~ 6150 2450
Wire Wire Line
	6150 2450 5600 2450
Wire Wire Line
	4800 2450 4550 2450
Wire Wire Line
	3400 2450 3050 2450
Wire Wire Line
	3050 2450 3050 2550
Wire Wire Line
	2300 2950 2300 2450
Wire Wire Line
	2300 2450 3050 2450
Connection ~ 3050 2450
Wire Wire Line
	4000 2550 4000 2450
Connection ~ 4000 2450
Wire Wire Line
	4000 2450 3700 2450
Wire Wire Line
	4550 2600 4550 2450
Connection ~ 4550 2450
Wire Wire Line
	4550 2450 4000 2450
Wire Wire Line
	4950 1950 4550 1950
Wire Wire Line
	4550 1950 4550 2450
Wire Wire Line
	5250 1950 5600 1950
Wire Wire Line
	5600 1950 5600 2450
Wire Wire Line
	4550 3800 4550 4450
Wire Wire Line
	4550 4450 4950 4450
Wire Wire Line
	5250 4450 5600 4450
Wire Wire Line
	5600 4450 5600 3800
$Comp
L Connector:Conn_01x03_Male J2
U 1 1 5BC9E9EE
P 7200 3050
F 0 "J2" H 7172 2982 50  0000 R CNN
F 1 "OUT" H 7172 3073 50  0000 R CNN
F 2 "TerminalBlock:TerminalBlock_bornier-3_P5.08mm" H 7200 3050 50  0001 C CNN
F 3 "~" H 7200 3050 50  0001 C CNN
	1    7200 3050
	-1   0    0    1   
$EndComp
$Comp
L Connector:Conn_01x03_Male J1
U 1 1 5BC9FE75
P 900 3050
F 0 "J1" H 1008 3331 50  0000 C CNN
F 1 "IN" H 1008 3240 50  0000 C CNN
F 2 "TerminalBlock:TerminalBlock_bornier-3_P5.08mm" H 900 3050 50  0001 C CNN
F 3 "~" H 900 3050 50  0001 C CNN
	1    900  3050
	1    0    0    -1  
$EndComp
Wire Wire Line
	1700 2950 1700 3800
Wire Wire Line
	1700 3800 3050 3800
Connection ~ 3050 3800
Wire Wire Line
	2000 2650 2000 2550
Wire Wire Line
	2000 2550 1100 2550
Wire Wire Line
	1100 2550 1100 2950
Wire Wire Line
	1100 3150 1100 3400
Wire Wire Line
	1100 3400 2000 3400
Wire Wire Line
	2000 3400 2000 3250
$Comp
L power:GND #PWR0102
U 1 1 5BCA616B
P 1300 3150
F 0 "#PWR0102" H 1300 2900 50  0001 C CNN
F 1 "GND" H 1305 2977 50  0000 C CNN
F 2 "" H 1300 3150 50  0001 C CNN
F 3 "" H 1300 3150 50  0001 C CNN
	1    1300 3150
	1    0    0    -1  
$EndComp
Wire Wire Line
	1300 3150 1300 3050
Wire Wire Line
	1300 3050 1100 3050
Wire Wire Line
	5100 2750 5100 3050
Connection ~ 5100 3050
Wire Wire Line
	5100 3050 5600 3050
Wire Wire Line
	5100 3050 5100 3500
Wire Wire Line
	7000 3050 6600 3050
Wire Wire Line
	7000 2950 7000 2450
Wire Wire Line
	7000 2450 6600 2450
Connection ~ 6600 2450
Wire Wire Line
	7000 3150 7000 3800
Wire Wire Line
	7000 3800 6600 3800
Connection ~ 6600 3800
$EndSCHEMATC
